5 Bar charts – Visualisations in R
…
5.7 Worked plots

library(haven)
library(labelled)
bsa <- read_sav("/Users/joecrowley/R/Data/BSA Teaching Data/spss/spss24/bsa2017_for_ukda.sav")
# names(bsa)

5.7.1 Bar chart for 1 way crossbreak (or for a frequency table)

bsa %>% count(as_factor(leftrigh, levels = "both"))

# A tibble: 32 × 2
   `as_factor(leftrigh, levels = "both")`     n
   <fct>                                  <int>
 1 [1] left                                 138
 2 1.2                                       77
 3 1.4                                      112
 4 1.5                                        1
 5 1.6                                      131
 6 1.66666666666667                           1
 7 1.75                                       3
 8 1.8                                      161
 9 2                                        343
10 2.2                                      321
# ℹ 22 more rows
…
5.7.4 Bar chart for 1 way crosstab - stack

dolefidl_x_leftrig2 <- bsa %>% 
  mutate(dolefidl = as_factor(dolefidl), 
         leftrig2 = as_factor(leftrig2),
         sex = as_factor(Rsex)) %>% 
  count(leftrig2, dolefidl) %>%
  filter(!is.na(leftrig2) & !is.na(dolefidl)) %>% 
  group_by(leftrig2) %>% 
  mutate(p = 100*(n / sum(n)), 
         psum = sum(p)) 

dolefidl_x_leftrig2

# A tibble: 23 × 5
# Groups:   leftrig2 [4]
   leftrig2 dolefidl                       n     p  psum
   <fct>    <fct>                      <int> <dbl> <dbl>
 1 left     Agree strongly               111  6.68   100
 2 left     Agree                        329 19.8    100
 3 left     Neither agree nor disagree   510 30.7    100
 4 left     Disagree                     494 29.7    100
 5 left     Disagree strongly            191 11.5    100
 6 left     Not answered                  27  1.62   100
 7 neither  Agree strongly                34  2.88   100
 8 neither  Agree                        221 18.7    100
 9 neither  Neither agree nor disagree   525 44.5    100
10 neither  Disagree                     344 29.1    100
# ℹ 13 more rows
…
bsa %>% count(RAgecat5)

# A tibble: 4 × 2
  RAgecat5     n
  <fct>    <int>
1 17-34      814
2 35-54     1379
3 55+       1791
4 DK/Ref       4

bsa %>% count(RAgecat5, hadvice)

# A tibble: 33 × 3
   RAgecat5 hadvice                        n
   <fct>    <fct>                      <int>
 1 17-34    Close family member          114
 2 17-34    More distant family member    10
 3 17-34    Close friend                 159
 4 17-34    Neighbour                      1
 5 17-34    Someone I work with            3
 6 17-34    Someone else                   6
 7 17-34    No one                         7
 8 17-34    Can`t choose                   3
 9 17-34    Not answered                   6
10 17-34    <NA>                         505
# ℹ 23 more rows
…
